{
    "registro": 
        {
            "preguntas": [
                {
                    "enunciado":"¿Está tomando medicamentos para sintomas gripales?",
                    "respuestas":[{"valor":"Dolor de garganta o tos", "seleccionada":false},{"valor":"Malestar general o debilidad", "seleccionada":false},{"valor":"Falta de aire", "seleccionada":false}],
                    "respuestaMultiple":false,
                    "inputOtros":false
                },
                {
                    "enunciado":"¿Ha sido victima del cobit 2?",
                    "respuestas":[{"valor":"Si", "seleccionada":false},{"valor":"No", "seleccionada":false},{"valor":"Que hay de nuevo doc?", "seleccionada":false}],
                    "respuestaMultiple":false,
                    "inputOtros":true
                },
                {
                    "enunciado":"¿Ha sido victima del cobit 3?",
                    "respuestas":[{"valor":"Si", "seleccionada":false},{"valor":"No", "seleccionada":false},{"valor":"Que hay de nuevo doc?", "seleccionada":false}],
                    "respuestaMultiple":true,
                    "inputOtros":false
                }
            ]
        }
}